sim/sim.vcd
$date
	Mon May 23 19:16:02 2022
$end
$version
	Icarus Verilog
$end
$timescale
	1ps
$end
$scope module spi_tb $end
$var wire 5 ! regwr_9 [4:0] $end
$var wire 5 " regwr_8 [4:0] $end
$var wire 2 # regwr_7 [1:0] $end
$var wire 4 $ regwr_6 [3:0] $end
$var wire 8 % regwr_5 [7:0] $end
$var wire 8 & regwr_41 [7:0] $end
$var wire 8 ' regwr_40 [7:0] $end
$var wire 3 ( regwr_4 [2:0] $end
$var wire 1 ) regwr_39 $end
$var wire 1 * regwr_38 $end
$var wire 1 + regwr_37 $end
$var wire 1 , regwr_36 $end
$var wire 1 - regwr_35 $end
$var wire 3 . regwr_34 [2:0] $end
$var wire 3 / regwr_33 [2:0] $end
$var wire 3 0 regwr_32 [2:0] $end
$var wire 1 1 regwr_31 $end
$var wire 1 2 regwr_30 $end
$var wire 8 3 regwr_3 [7:0] $end
$var wire 1 4 regwr_29 $end
$var wire 4 5 regwr_28 [3:0] $end
$var wire 4 6 regwr_27 [3:0] $end
$var wire 1 7 regwr_26 $end
$var wire 1 8 regwr_25 $end
$var wire 1 9 regwr_24 $end
$var wire 7 : regwr_23 [6:0] $end
$var wire 1 ; regwr_22 $end
$var wire 2 < regwr_21 [1:0] $end
$var wire 1 = regwr_20 $end
$var wire 8 > regwr_2 [7:0] $end
$var wire 1 ? regwr_19 $end
$var wire 2 @ regwr_18 [1:0] $end
$var wire 2 A regwr_17 [1:0] $end
$var wire 3 B regwr_16 [2:0] $end
$var wire 3 C regwr_15 [2:0] $end
$var wire 1 D regwr_14 $end
$var wire 1 E regwr_13 $end
$var wire 1 F regwr_12 $end
$var wire 5 G regwr_11 [4:0] $end
$var wire 5 H regwr_10 [4:0] $end
$var wire 8 I regwr_1 [7:0] $end
$var wire 8 J regwr_0 [7:0] $end
$var wire 1 K MISO $end
$var reg 1 L CS $end
$var reg 1 M MOSI $end
$var reg 1 N SCK $end
$var reg 1 O clk $end
$var reg 8 P i [7:0] $end
$var reg 8 Q readed [7:0] $end
$var reg 4 R regr_0 [3:0] $end
$var reg 7 S regr_1 [6:0] $end
$var reg 8 T regr_2 [7:0] $end
$var reg 8 U regr_3 [7:0] $end
$var reg 8 V regr_4 [7:0] $end
$var reg 8 W regr_5 [7:0] $end
$var reg 1 X rst $end
$scope module DRAC_BEHAVIORAL $end
$var wire 1 Y CONTROL_clk $end
$var wire 8 Z CONTROL_data_in [7:0] $end
$var wire 8 [ CONTROL_dataw [7:0] $end
$var wire 1 \ CONTROL_rst $end
$var wire 1 ] CONTROL_valid $end
$var wire 1 L CS $end
$var wire 1 K MISO $end
$var wire 1 M MOSI $end
$var wire 6 ^ REGS_addr [5:0] $end
$var wire 1 _ REGS_clk $end
$var wire 8 ` REGS_dataw [7:0] $end
$var wire 4 a REGS_regr_0 [3:0] $end
$var wire 7 b REGS_regr_1 [6:0] $end
$var wire 8 c REGS_regr_2 [7:0] $end
$var wire 8 d REGS_regr_3 [7:0] $end
$var wire 8 e REGS_regr_4 [7:0] $end
$var wire 8 f REGS_regr_5 [7:0] $end
$var wire 1 g REGS_rst $end
$var wire 1 h REGS_we $end
$var wire 1 N SCK $end
$var wire 1 i SPI_CS $end
$var wire 1 j SPI_MOSI $end
$var wire 1 k SPI_SCK $end
$var wire 1 l SPI_clk $end
$var wire 8 m SPI_datar [7:0] $end
$var wire 1 n SPI_ready $end
$var wire 1 o SPI_rst $end
$var wire 1 O clk $end
$var wire 4 p regr_0 [3:0] $end
$var wire 7 q regr_1 [6:0] $end
$var wire 8 r regr_2 [7:0] $end
$var wire 8 s regr_3 [7:0] $end
$var wire 8 t regr_4 [7:0] $end
$var wire 8 u regr_5 [7:0] $end
$var wire 8 v regwr_0 [7:0] $end
$var wire 8 w regwr_1 [7:0] $end
$var wire 5 x regwr_10 [4:0] $end
$var wire 5 y regwr_11 [4:0] $end
$var wire 1 F regwr_12 $end
$var wire 1 E regwr_13 $end
$var wire 1 D regwr_14 $end
$var wire 3 z regwr_15 [2:0] $end
$var wire 3 { regwr_16 [2:0] $end
$var wire 2 | regwr_17 [1:0] $end
$var wire 2 } regwr_18 [1:0] $end
$var wire 1 ? regwr_19 $end
$var wire 8 ~ regwr_2 [7:0] $end
$var wire 1 = regwr_20 $end
$var wire 2 !" regwr_21 [1:0] $end
$var wire 1 ; regwr_22 $end
$var wire 7 "" regwr_23 [6:0] $end
$var wire 1 9 regwr_24 $end
$var wire 1 8 regwr_25 $end
$var wire 1 7 regwr_26 $end
$var wire 4 #" regwr_27 [3:0] $end
$var wire 4 $" regwr_28 [3:0] $end
$var wire 1 4 regwr_29 $end
$var wire 8 %" regwr_3 [7:0] $end
$var wire 1 2 regwr_30 $end
$var wire 1 1 regwr_31 $end
$var wire 3 &" regwr_32 [2:0] $end
$var wire 3 '" regwr_33 [2:0] $end
$var wire 3 (" regwr_34 [2:0] $end
$var wire 1 - regwr_35 $end
$var wire 1 , regwr_36 $end
$var wire 1 + regwr_37 $end
$var wire 1 * regwr_38 $end
$var wire 1 ) regwr_39 $end
$var wire 3 )" regwr_4 [2:0] $end
$var wire 8 *" regwr_40 [7:0] $end
$var wire 8 +" regwr_41 [7:0] $end
$var wire 8 ," regwr_5 [7:0] $end
$var wire 4 -" regwr_6 [3:0] $end
$var wire 2 ." regwr_7 [1:0] $end
$var wire 5 /" regwr_8 [4:0] $end
$var wire 5 0" regwr_9 [4:0] $end
$var wire 1 X rst $end
$var wire 1 1" SPI_valid $end
$var wire 8 2" SPI_dataw [7:0] $end
$var wire 1 3" SPI_MISO $end
$var wire 5 4" REGS_regwr_9 [4:0] $end
$var wire 5 5" REGS_regwr_8 [4:0] $end
$var wire 2 6" REGS_regwr_7 [1:0] $end
$var wire 4 7" REGS_regwr_6 [3:0] $end
$var wire 8 8" REGS_regwr_5 [7:0] $end
$var wire 8 9" REGS_regwr_41 [7:0] $end
$var wire 8 :" REGS_regwr_40 [7:0] $end
$var wire 3 ;" REGS_regwr_4 [2:0] $end
$var wire 1 <" REGS_regwr_39 $end
$var wire 1 =" REGS_regwr_38 $end
$var wire 1 >" REGS_regwr_37 $end
$var wire 1 ?" REGS_regwr_36 $end
$var wire 1 @" REGS_regwr_35 $end
$var wire 3 A" REGS_regwr_34 [2:0] $end
$var wire 3 B" REGS_regwr_33 [2:0] $end
$var wire 3 C" REGS_regwr_32 [2:0] $end
$var wire 1 D" REGS_regwr_31 $end
$var wire 1 E" REGS_regwr_30 $end
$var wire 8 F" REGS_regwr_3 [7:0] $end
$var wire 1 G" REGS_regwr_29 $end
$var wire 4 H" REGS_regwr_28 [3:0] $end
$var wire 4 I" REGS_regwr_27 [3:0] $end
$var wire 1 J" REGS_regwr_26 $end
$var wire 1 K" REGS_regwr_25 $end
$var wire 1 L" REGS_regwr_24 $end
$var wire 7 M" REGS_regwr_23 [6:0] $end
$var wire 1 N" REGS_regwr_22 $end
$var wire 2 O" REGS_regwr_21 [1:0] $end
$var wire 1 P" REGS_regwr_20 $end
$var wire 8 Q" REGS_regwr_2 [7:0] $end
$var wire 1 R" REGS_regwr_19 $end
$var wire 2 S" REGS_regwr_18 [1:0] $end
$var wire 2 T" REGS_regwr_17 [1:0] $end
$var wire 3 U" REGS_regwr_16 [2:0] $end
$var wire 3 V" REGS_regwr_15 [2:0] $end
$var wire 1 W" REGS_regwr_14 $end
$var wire 1 X" REGS_regwr_13 $end
$var wire 1 Y" REGS_regwr_12 $end
$var wire 5 Z" REGS_regwr_11 [4:0] $end
$var wire 5 [" REGS_regwr_10 [4:0] $end
$var wire 8 \" REGS_regwr_1 [7:0] $end
$var wire 8 ]" REGS_regwr_0 [7:0] $end
$var wire 8 ^" REGS_datar [7:0] $end
$var wire 1 _" CONTROL_we $end
$var wire 1 `" CONTROL_ready $end
$var wire 8 a" CONTROL_datar [7:0] $end
$var wire 8 b" CONTROL_data_out [7:0] $end
$var wire 6 c" CONTROL_addr [5:0] $end
$scope module CONTROL $end
$var wire 1 Y clk $end
$var wire 8 d" data_in [7:0] $end
$var wire 8 e" dataw [7:0] $end
$var wire 1 \ rst $end
$var wire 1 ] valid $end
$var wire 1 _" we $end
$var reg 6 f" addr [5:0] $end
$var reg 6 g" burst_cnt [5:0] $end
$var reg 1 h" burst_we $end
$var reg 8 i" data_out [7:0] $end
$var reg 8 j" datar [7:0] $end
$var reg 1 `" ready $end
$var reg 1 k" single_we $end
$var reg 2 l" state [1:0] $end
$upscope $end
$scope module REGS $end
$var wire 1 m" _T_101 $end
$var wire 1 n" _T_104 $end
$var wire 1 o" _T_107 $end
$var wire 1 p" _T_11 $end
$var wire 1 q" _T_110 $end
$var wire 1 r" _T_113 $end
$var wire 1 s" _T_116 $end
$var wire 1 t" _T_119 $end
$var wire 1 u" _T_122 $end
$var wire 1 v" _T_125 $end
$var wire 1 w" _T_14 $end
$var wire 1 x" _T_17 $end
$var wire 1 y" _T_2 $end
$var wire 1 z" _T_20 $end
$var wire 1 {" _T_23 $end
$var wire 1 |" _T_26 $end
$var wire 1 }" _T_29 $end
$var wire 1 ~" _T_32 $end
$var wire 1 !# _T_35 $end
$var wire 1 "# _T_38 $end
$var wire 1 ## _T_41 $end
$var wire 1 $# _T_44 $end
$var wire 1 %# _T_47 $end
$var wire 1 &# _T_5 $end
$var wire 1 '# _T_50 $end
$var wire 1 (# _T_53 $end
$var wire 1 )# _T_56 $end
$var wire 1 *# _T_59 $end
$var wire 1 +# _T_62 $end
$var wire 1 ,# _T_65 $end
$var wire 1 -# _T_68 $end
$var wire 1 .# _T_71 $end
$var wire 1 /# _T_74 $end
$var wire 1 0# _T_77 $end
$var wire 1 1# _T_8 $end
$var wire 1 2# _T_80 $end
$var wire 1 3# _T_83 $end
$var wire 1 4# _T_86 $end
$var wire 1 5# _T_89 $end
$var wire 1 6# _T_92 $end
$var wire 1 7# _T_95 $end
$var wire 1 8# _T_98 $end
$var wire 6 9# addr [5:0] $end
$var wire 1 _ clk $end
$var wire 8 :# datar [7:0] $end
$var wire 8 ;# dataw [7:0] $end
$var wire 4 <# regr_0 [3:0] $end
$var wire 7 =# regr_1 [6:0] $end
$var wire 8 ># regr_2 [7:0] $end
$var wire 8 ?# regr_3 [7:0] $end
$var wire 8 @# regr_4 [7:0] $end
$var wire 8 A# regr_5 [7:0] $end
$var wire 8 B# regwr_0 [7:0] $end
$var wire 8 C# regwr_1 [7:0] $end
$var wire 5 D# regwr_10 [4:0] $end
$var wire 5 E# regwr_11 [4:0] $end
$var wire 1 Y" regwr_12 $end
$var wire 1 X" regwr_13 $end
$var wire 1 W" regwr_14 $end
$var wire 3 F# regwr_15 [2:0] $end
$var wire 3 G# regwr_16 [2:0] $end
$var wire 2 H# regwr_17 [1:0] $end
$var wire 2 I# regwr_18 [1:0] $end
$var wire 1 R" regwr_19 $end
$var wire 8 J# regwr_2 [7:0] $end
$var wire 1 P" regwr_20 $end
$var wire 2 K# regwr_21 [1:0] $end
$var wire 1 N" regwr_22 $end
$var wire 7 L# regwr_23 [6:0] $end
$var wire 1 L" regwr_24 $end
$var wire 1 K" regwr_25 $end
$var wire 1 J" regwr_26 $end
$var wire 4 M# regwr_27 [3:0] $end
$var wire 4 N# regwr_28 [3:0] $end
$var wire 1 G" regwr_29 $end
$var wire 8 O# regwr_3 [7:0] $end
$var wire 1 E" regwr_30 $end
$var wire 1 D" regwr_31 $end
$var wire 3 P# regwr_32 [2:0] $end
$var wire 3 Q# regwr_33 [2:0] $end
$var wire 3 R# regwr_34 [2:0] $end
$var wire 1 @" regwr_35 $end
$var wire 1 ?" regwr_36 $end
$var wire 1 >" regwr_37 $end
$var wire 1 =" regwr_38 $end
$var wire 1 <" regwr_39 $end
$var wire 3 S# regwr_4 [2:0] $end
$var wire 8 T# regwr_40 [7:0] $end
$var wire 8 U# regwr_41 [7:0] $end
$var wire 8 V# regwr_5 [7:0] $end
$var wire 4 W# regwr_6 [3:0] $end
$var wire 2 X# regwr_7 [1:0] $end
$var wire 5 Y# regwr_8 [4:0] $end
$var wire 5 Z# regwr_9 [4:0] $end
$var wire 1 g rst $end
$var wire 1 h we $end
$var wire 1 [# _T_97 $end
$var wire 1 \# _T_94 $end
$var wire 1 ]# _T_91 $end
$var wire 1 ^# _T_88 $end
$var wire 1 _# _T_85 $end
$var wire 1 `# _T_82 $end
$var wire 1 a# _T_79 $end
$var wire 1 b# _T_76 $end
$var wire 1 c# _T_73 $end
$var wire 1 d# _T_70 $end
$var wire 1 e# _T_7 $end
$var wire 1 f# _T_67 $end
$var wire 1 g# _T_64 $end
$var wire 1 h# _T_61 $end
$var wire 1 i# _T_58 $end
$var wire 1 j# _T_55 $end
$var wire 1 k# _T_52 $end
$var wire 1 l# _T_49 $end
$var wire 1 m# _T_46 $end
$var wire 1 n# _T_43 $end
$var wire 1 o# _T_40 $end
$var wire 1 p# _T_4 $end
$var wire 1 q# _T_37 $end
$var wire 1 r# _T_34 $end
$var wire 1 s# _T_31 $end
$var wire 1 t# _T_28 $end
$var wire 1 u# _T_25 $end
$var wire 1 v# _T_22 $end
$var wire 1 w# _T_19 $end
$var wire 384 x# _T_176 [383:0] $end
$var wire 336 y# _T_175 [335:0] $end
$var wire 40 z# _T_167 [39:0] $end
$var wire 80 {# _T_163 [79:0] $end
$var wire 1 |# _T_16 $end
$var wire 168 }# _T_154 [167:0] $end
$var wire 40 ~# _T_147 [39:0] $end
$var wire 80 !$ _T_143 [79:0] $end
$var wire 1 "$ _T_13 $end
$var wire 8 #$ _T_126_9 [7:0] $end
$var wire 8 $$ _T_126_8 [7:0] $end
$var wire 8 %$ _T_126_7 [7:0] $end
$var wire 8 &$ _T_126_6 [7:0] $end
$var wire 8 '$ _T_126_4 [7:0] $end
$var wire 8 ($ _T_126_39 [7:0] $end
$var wire 8 )$ _T_126_38 [7:0] $end
$var wire 8 *$ _T_126_37 [7:0] $end
$var wire 8 +$ _T_126_36 [7:0] $end
$var wire 8 ,$ _T_126_35 [7:0] $end
$var wire 8 -$ _T_126_34 [7:0] $end
$var wire 8 .$ _T_126_33 [7:0] $end
$var wire 8 /$ _T_126_32 [7:0] $end
$var wire 8 0$ _T_126_31 [7:0] $end
$var wire 8 1$ _T_126_30 [7:0] $end
$var wire 8 2$ _T_126_29 [7:0] $end
$var wire 8 3$ _T_126_28 [7:0] $end
$var wire 8 4$ _T_126_27 [7:0] $end
$var wire 8 5$ _T_126_26 [7:0] $end
$var wire 8 6$ _T_126_25 [7:0] $end
$var wire 8 7$ _T_126_24 [7:0] $end
$var wire 8 8$ _T_126_23 [7:0] $end
$var wire 8 9$ _T_126_22 [7:0] $end
$var wire 8 :$ _T_126_21 [7:0] $end
$var wire 8 ;$ _T_126_20 [7:0] $end
$var wire 8 <$ _T_126_19 [7:0] $end
$var wire 8 =$ _T_126_18 [7:0] $end
$var wire 8 >$ _T_126_17 [7:0] $end
$var wire 8 ?$ _T_126_16 [7:0] $end
$var wire 8 @$ _T_126_15 [7:0] $end
$var wire 8 A$ _T_126_14 [7:0] $end
$var wire 8 B$ _T_126_13 [7:0] $end
$var wire 8 C$ _T_126_12 [7:0] $end
$var wire 8 D$ _T_126_11 [7:0] $end
$var wire 8 E$ _T_126_10 [7:0] $end
$var wire 1 F$ _T_124 $end
$var wire 1 G$ _T_121 $end
$var wire 1 H$ _T_118 $end
$var wire 1 I$ _T_115 $end
$var wire 1 J$ _T_112 $end
$var wire 1 K$ _T_109 $end
$var wire 1 L$ _T_106 $end
$var wire 1 M$ _T_103 $end
$var wire 1 N$ _T_100 $end
$var wire 1 O$ _T_10 $end
$var wire 1 P$ _T_1 $end
$var wire 8 Q$ _GEN_9 [7:0] $end
$var wire 8 R$ _GEN_8 [7:0] $end
$var wire 8 S$ _GEN_7 [7:0] $end
$var wire 8 T$ _GEN_6 [7:0] $end
$var wire 8 U$ _GEN_4 [7:0] $end
$var wire 8 V$ _GEN_39 [7:0] $end
$var wire 8 W$ _GEN_38 [7:0] $end
$var wire 8 X$ _GEN_37 [7:0] $end
$var wire 8 Y$ _GEN_36 [7:0] $end
$var wire 8 Z$ _GEN_35 [7:0] $end
$var wire 8 [$ _GEN_34 [7:0] $end
$var wire 8 \$ _GEN_33 [7:0] $end
$var wire 8 ]$ _GEN_32 [7:0] $end
$var wire 8 ^$ _GEN_31 [7:0] $end
$var wire 8 _$ _GEN_30 [7:0] $end
$var wire 8 `$ _GEN_29 [7:0] $end
$var wire 8 a$ _GEN_28 [7:0] $end
$var wire 8 b$ _GEN_27 [7:0] $end
$var wire 8 c$ _GEN_26 [7:0] $end
$var wire 8 d$ _GEN_25 [7:0] $end
$var wire 8 e$ _GEN_24 [7:0] $end
$var wire 8 f$ _GEN_23 [7:0] $end
$var wire 8 g$ _GEN_22 [7:0] $end
$var wire 8 h$ _GEN_21 [7:0] $end
$var wire 8 i$ _GEN_20 [7:0] $end
$var wire 8 j$ _GEN_19 [7:0] $end
$var wire 8 k$ _GEN_18 [7:0] $end
$var wire 8 l$ _GEN_17 [7:0] $end
$var wire 8 m$ _GEN_16 [7:0] $end
$var wire 8 n$ _GEN_15 [7:0] $end
$var wire 8 o$ _GEN_14 [7:0] $end
$var wire 8 p$ _GEN_13 [7:0] $end
$var wire 8 q$ _GEN_12 [7:0] $end
$var wire 8 r$ _GEN_11 [7:0] $end
$var wire 8 s$ _GEN_10 [7:0] $end
$var reg 8 t$ _T [7:0] $end
$var reg 3 u$ _T_102 [2:0] $end
$var reg 1 v$ _T_105 $end
$var reg 1 w$ _T_108 $end
$var reg 1 x$ _T_111 $end
$var reg 1 y$ _T_114 $end
$var reg 1 z$ _T_117 $end
$var reg 3 {$ _T_12 [2:0] $end
$var reg 8 |$ _T_120 [7:0] $end
$var reg 8 }$ _T_123 [7:0] $end
$var reg 8 ~$ _T_128_0 [7:0] $end
$var reg 8 !% _T_128_1 [7:0] $end
$var reg 8 "% _T_128_2 [7:0] $end
$var reg 8 #% _T_128_3 [7:0] $end
$var reg 8 $% _T_128_4 [7:0] $end
$var reg 8 %% _T_128_5 [7:0] $end
$var reg 8 &% _T_15 [7:0] $end
$var reg 4 '% _T_18 [3:0] $end
$var reg 2 (% _T_21 [1:0] $end
$var reg 8 )% _T_227 [7:0] $end
$var reg 5 *% _T_24 [4:0] $end
$var reg 5 +% _T_27 [4:0] $end
$var reg 8 ,% _T_3 [7:0] $end
$var reg 5 -% _T_30 [4:0] $end
$var reg 5 .% _T_33 [4:0] $end
$var reg 1 /% _T_36 $end
$var reg 1 0% _T_39 $end
$var reg 1 1% _T_42 $end
$var reg 3 2% _T_45 [2:0] $end
$var reg 3 3% _T_48 [2:0] $end
$var reg 2 4% _T_51 [1:0] $end
$var reg 2 5% _T_54 [1:0] $end
$var reg 1 6% _T_57 $end
$var reg 8 7% _T_6 [7:0] $end
$var reg 1 8% _T_60 $end
$var reg 2 9% _T_63 [1:0] $end
$var reg 1 :% _T_66 $end
$var reg 7 ;% _T_69 [6:0] $end
$var reg 1 <% _T_72 $end
$var reg 1 =% _T_75 $end
$var reg 1 >% _T_78 $end
$var reg 4 ?% _T_81 [3:0] $end
$var reg 4 @% _T_84 [3:0] $end
$var reg 1 A% _T_87 $end
$var reg 8 B% _T_9 [7:0] $end
$var reg 1 C% _T_90 $end
$var reg 1 D% _T_93 $end
$var reg 3 E% _T_96 [2:0] $end
$var reg 3 F% _T_99 [2:0] $end
$upscope $end
$scope module SPI $end
$var wire 1 i CS $end
$var wire 1 j MOSI $end
$var wire 1 k SCK $end
$var wire 1 G% SCK_FE $end
$var wire 1 H% SCK_RE $end
$var wire 1 l clk $end
$var wire 8 I% datar [7:0] $end
$var wire 8 J% dataw [7:0] $end
$var wire 1 n ready $end
$var wire 1 o rst $end
$var wire 1 3" MISO $end
$var reg 2 K% CS_sync [1:0] $end
$var reg 8 L% MISO_SR [7:0] $end
$var reg 8 M% MOSI_SR [7:0] $end
$var reg 2 N% MOSI_sync [1:0] $end
$var reg 2 O% SCK_sync [1:0] $end
$var reg 3 P% counter [2:0] $end
$var reg 1 Q% late_SCK $end
$var reg 1 R% sending $end
$var reg 1 1" valid $end
$upscope $end
$upscope $end
$scope task burst_tran $end
$upscope $end
$scope task read_tran $end
$var reg 7 S% addr [6:0] $end
$var reg 8 T% word [7:0] $end
$upscope $end
$scope task spi_read $end
$var reg 8 U% word [7:0] $end
$var integer 32 V% c [31:0] $end
$upscope $end
$scope task spi_send $end
$var reg 8 W% word [7:0] $end
$var integer 32 X% c [31:0] $end
$upscope $end
$scope task write_tran $end
$var reg 7 Y% addr [6:0] $end
$var reg 8 Z% word [7:0] $end
$upscope $end
$upscope $end
$enddefinitions $end
#0
$dumpvars
bx Z%
bx Y%
bx X%
bx W%
bx V%
bx U%
bx T%
bx S%
xR%
xQ%
bx P%
bx O%
bx N%
bx M%
bx L%
bx K%
bx J%
bx I%
xH%
xG%
b0 F%
b0 E%
0D%
0C%
b0 B%
0A%
b1000 @%
b0 ?%
0>%
0=%
0<%
b0 ;%
1:%
b0 9%
08%
b0 7%
06%
b1 5%
b1 4%
b1 3%
b11 2%
11%
00%
0/%
b0 .%
b0 -%
b11111111 ,%
b10 +%
b1011 *%
bx )%
b0 (%
b0 '%
b11111111 &%
b0 %%
b0 $%
b0 #%
b0 "%
b0 !%
b0 ~$
b0 }$
b0 |$
b100 {$
0z$
0y$
1x$
1w$
1v$
b0 u$
b10000001 t$
bx s$
bx r$
bx q$
bx p$
bx o$
bx n$
bx m$
bx l$
bx k$
bx j$
bx i$
bx h$
bx g$
bx f$
bx e$
bx d$
bx c$
bx b$
bx a$
bx `$
bx _$
bx ^$
bx ]$
bx \$
bx [$
bx Z$
bx Y$
bx X$
bx W$
bx V$
bx U$
bx T$
bx S$
bx R$
bx Q$
xP$
xO$
xN$
xM$
xL$
xK$
xJ$
xI$
xH$
xG$
xF$
b0 E$
b0 D$
b0 C$
b0 B$
b1 A$
b11 @$
b1 ?$
b1 >$
b1 =$
b0 <$
b0 ;$
b0 :$
b1 9$
b0 8$
b0 7$
b0 6$
b0 5$
b0 4$
b1000 3$
b0 2$
b0 1$
b0 0$
b0 /$
b0 .$
b0 -$
b1 ,$
b1 +$
b1 *$
b0 )$
b0 ($
b100 '$
b0 &$
b0 %$
b1011 $$
b10 #$
x"$
b10000010110000000000000000111111110000010000000000000000001111111110000001 !$
b100000000000000000000000000000000 ~#
b1000000010000000100000011000000010000000000000000000000000000000000000010000010110000000000000000111111110000010000000000000000001111111110000001 }#
x|#
b100000000000000000000000000000000000000000000000000100000000 {#
b100000000000000000000000000000000 z#
b100000001000000010000000000000000000000000000000000000000000000000000100000000000000000000000000000000000000000000000000100000000000000000000000000000001000000010000000100000011000000010000000000000000000000000000000000000010000010110000000000000000111111110000010000000000000000001111111110000001 y#
b100000001000000010000000000000000000000000000000000000000000000000000100000000000000000000000000000000000000000000000000100000000000000000000000000000001000000010000000100000011000000010000000000000000000000000000000000000010000010110000000000000000111111110000010000000000000000001111111110000001 x#
xw#
xv#
xu#
xt#
xs#
xr#
xq#
xp#
xo#
xn#
xm#
xl#
xk#
xj#
xi#
xh#
xg#
xf#
xe#
xd#
xc#
xb#
xa#
x`#
x_#
x^#
x]#
x\#
x[#
b10 Z#
b1011 Y#
b0 X#
b0 W#
b11111111 V#
b0 U#
b0 T#
b100 S#
b0 R#
b0 Q#
b0 P#
b0 O#
b1000 N#
b0 M#
b0 L#
b0 K#
b0 J#
b1 I#
b1 H#
b1 G#
b11 F#
b0 E#
b0 D#
b11111111 C#
b10000001 B#
b1001 A#
b1001 @#
b1001 ?#
b1001 >#
b1001 =#
b1001 <#
bx ;#
bx :#
bx 9#
x8#
x7#
x6#
x5#
x4#
x3#
x2#
x1#
x0#
x/#
x.#
x-#
x,#
x+#
x*#
x)#
x(#
x'#
x&#
x%#
x$#
x##
x"#
x!#
x~"
x}"
x|"
x{"
xz"
xy"
xx"
xw"
xv"
xu"
xt"
xs"
xr"
xq"
xp"
xo"
xn"
xm"
bx l"
xk"
bx j"
bx i"
xh"
bx g"
bx f"
bx e"
bx d"
bx c"
bx b"
bx a"
x`"
x_"
bx ^"
b10000001 ]"
b11111111 \"
b0 ["
b0 Z"
0Y"
0X"
1W"
b11 V"
b1 U"
b1 T"
b1 S"
0R"
b0 Q"
0P"
b0 O"
1N"
b0 M"
0L"
0K"
0J"
b0 I"
b1000 H"
0G"
b0 F"
0E"
0D"
b0 C"
b0 B"
b0 A"
1@"
1?"
1>"
0="
0<"
b100 ;"
b0 :"
b0 9"
b11111111 8"
b0 7"
b0 6"
b1011 5"
b10 4"
x3"
bx 2"
x1"
b10 0"
b1011 /"
b0 ."
b0 -"
b11111111 ,"
b0 +"
b0 *"
b100 )"
b0 ("
b0 '"
b0 &"
b0 %"
b1000 $"
b0 #"
b0 ""
b0 !"
b0 ~
b1 }
b1 |
b1 {
b11 z
b0 y
b0 x
b11111111 w
b10000001 v
b1001 u
b1001 t
b1001 s
b1001 r
b1001 q
b1001 p
1o
xn
bx m
0l
0k
1j
1i
xh
1g
b1001 f
b1001 e
b1001 d
b1001 c
b1001 b
b1001 a
bx `
0_
bx ^
x]
1\
bx [
bx Z
0Y
1X
b1001 W
b1001 V
b1001 U
b1001 T
b1001 S
b1001 R
b0 Q
bx P
0O
0N
1M
1L
xK
b10000001 J
b11111111 I
b0 H
b0 G
0F
0E
1D
b11 C
b1 B
b1 A
b1 @
0?
b0 >
0=
b0 <
1;
b0 :
09
08
07
b0 6
b1000 5
04
b0 3
02
01
b0 0
b0 /
b0 .
1-
1,
1+
0*
0)
b100 (
b0 '
b0 &
b11111111 %
b0 $
b0 #
b1011 "
b10 !
$end
#1600
0G%
0y"
1K
13"
0h
0_"
b100 U$
b0 T$
b0 S$
b1011 R$
b10 Q$
b0 s$
b0 r$
b0 q$
b0 p$
b1 o$
b11 n$
b1 m$
b1 l$
b1 k$
b0 j$
b0 i$
b0 h$
b1 g$
b0 f$
b0 e$
b0 d$
b0 c$
b0 b$
b1000 a$
b0 `$
b0 _$
b0 ^$
b0 ]$
b0 \$
b0 [$
b1 Z$
b1 Y$
b1 X$
b0 W$
b0 V$
0&#
01#
0p"
0w"
0x"
0z"
0{"
0|"
0}"
0~"
0!#
0"#
0##
0$#
0%#
0'#
0(#
0)#
0*#
0+#
0,#
0-#
0.#
0/#
00#
02#
03#
04#
05#
06#
07#
08#
0m"
0n"
0o"
0q"
0r"
0s"
0t"
0u"
0v"
bx1 K%
bx0 O%
0Q%
b0 P%
0]
01"
bx1 N%
b11111111 [
b11111111 e"
b11111111 2"
b11111111 J%
b11111111 M%
0R%
b11111111 L%
b0 l"
0h"
b0 g"
0n
0`"
b0 m
b0 I%
b0 a"
b0 j"
0k"
b0 `
b0 ;#
b0 b"
b0 i"
1P$
0p#
0e#
0O$
0"$
0|#
0w#
0v#
0u#
0t#
0s#
0r#
0q#
0o#
0n#
0m#
0l#
0k#
0j#
0i#
0h#
0g#
0f#
0d#
0c#
0b#
0a#
0`#
0_#
0^#
0]#
0\#
0[#
0N$
0M$
0L$
0K$
0J$
0I$
0H$
0G$
0F$
b0 ^
b0 9#
b0 c"
b0 f"
b10000001 Z
b10000001 d"
b10000001 ^"
b10000001 :#
b10000001 )%
1l
1Y
1_
1O
#3200
0l
0Y
0_
0O
#4800
0H%
b11 N%
b0 O%
b11 K%
1l
1Y
1_
1O
#6400
0l
0Y
0_
0O
0o
0\
0g
0X
#8000
b1001 %%
b1001 $%
b1001 #%
b1001 "%
b1001 !%
b10010000100100001001000010010000100100001001000000000000000000000000000000000000000100000001000000010000000000000000000000000000000000000000000000000000100000000000000000000000000000000000000000000000000100000000000000000000000000000001000000010000000100000011000000010000000000000000000000000000000000000010000010110000000000000000111111110000010000000000000000001111111110000001 x#
b1001 ~$
1l
1Y
1_
1O
#9600
0l
0Y
0_
0O
#11200
1l
1Y
1_
1O
#12800
0l
0Y
0_
0O
#14400
1l
1Y
1_
1O
#16000
0l
0Y
0_
0O
#17600
1l
1Y
1_
1O
#19200
0l
0Y
0_
0O
#20800
1l
1Y
1_
1O
#22400
0l
0Y
0_
0O
#24000
1l
1Y
1_
1O
#25600
0l
0Y
0_
0O
#27200
1l
1Y
1_
1O
#28800
0l
0Y
0_
0O
#30400
1l
1Y
1_
1O
#32000
0l
0Y
0_
0O
#33600
1l
1Y
1_
1O
#35200
0l
0Y
0_
0O
#36800
1l
1Y
1_
1O
#38400
0l
0Y
0_
0O
#40000
1l
1Y
1_
1O
#41600
0l
0Y
0_
0O
#43200
1l
1Y
1_
1O
#44800
0l
0Y
0_
0O
#46400
1l
1Y
1_
1O
#48000
0l
0Y
0_
0O
#49600
1l
1Y
1_
1O
#51200
0l
0Y
0_
0O
#52800
1l
1Y
1_
1O
#54400
0l
0Y
0_
0O
#56000
1l
1Y
1_
1O
#57600
0l
0Y
0_
0O
#59200
1l
1Y
1_
1O
#60800
0l
0Y
0_
0O
#62400
1l
1Y
1_
1O
#64000
0l
0Y
0_
0O
#65600
1l
1Y
1_
1O
#67200
0l
0Y
0_
0O
#68800
1l
1Y
1_
1O
#70400
0l
0Y
0_
0O
#72000
1l
1Y
1_
1O
#73066
0j
0M
b0 X%
b0 W%
0i
0L
b0 S%
#73600
0l
0Y
0_
0O
#75200
b10 N%
b10 K%
1l
1Y
1_
1O
#76800
0l
0Y
0_
0O
#78400
b0 K%
b0 N%
1l
1Y
1_
1O
#80000
0l
0Y
0_
0O
#81600
1l
1Y
1_
1O
#83200
0l
0Y
0_
0O
#84800
1l
1Y
1_
1O
#86400
0l
0Y
0_
0O
#88000
1l
1Y
1_
1O
#89600
0l
0Y
0_
0O
#89733
1k
1N
#91200
b1 O%
1l
1Y
1_
1O
#92800
0l
0Y
0_
0O
